%YAML 1.1
%TAG !u! tag:unity3d.com,2011:
--- !u!114 &11400000
MonoBehaviour:
  m_ObjectHideFlags: 0
  m_CorrespondingSourceObject: {fileID: 0}
  m_PrefabInstance: {fileID: 0}
  m_PrefabAsset: {fileID: 0}
  m_GameObject: {fileID: 0}
  m_Enabled: 1
  m_EditorHideFlags: 0
  m_Script: {fileID: 11500000, guid: 3b348e2d6beb0804f94c05dfe7b76419, type: 3}
  m_Name: Info1
  m_EditorClassIdentifier: 
  color: {r: 1, g: 0.1540286, b: 0, a: 1}
  scale: {x: 3, y: 3, z: 3}
  angularSpeed: 120
