%YAML 1.1
%TAG !u! tag:unity3d.com,2011:
--- !u!1045 &1
EditorBuildSettings:
  m_ObjectHideFlags: 0
  serializedVersion: 2
  m_Scenes:
  - enabled: 1
    path: Assets/Scenes/General.unity
    guid: 2cda990e2423bbf4892e6590ba056729
  - enabled: 1
    path: Assets/Scenes/Batalla.unity
    guid: 323b85041427cd54e85e174b946cd233
  - enabled: 1
    path: Assets/Scenes/Inicio.unity
    guid: 6f0f8b1e0781b3043a2facdf05115523
  m_configObjects: {}
