%YAML 1.1
%TAG !u! tag:unity3d.com,2011:
--- !u!114 &11400000
MonoBehaviour:
  m_ObjectHideFlags: 0
  m_CorrespondingSourceObject: {fileID: 0}
  m_PrefabInstance: {fileID: 0}
  m_PrefabAsset: {fileID: 0}
  m_GameObject: {fileID: 0}
  m_Enabled: 1
  m_EditorHideFlags: 0
  m_Script: {fileID: 11500000, guid: 465dcd162782e9b48993522845509d1f, type: 3}
  m_Name: WhiteMage
  m_EditorClassIdentifier: 
  id: 7
  Name: White Mage
  img:
  - {fileID: 21300000, guid: b591b730b3b00654b839371010fd0ebc, type: 3}
  - {fileID: 21300000, guid: 24061aa49126e60439895e2d7186cfc7, type: 3}
  - {fileID: 21300000, guid: 090f38290e3e9c64e9ba0b980e51894e, type: 3}
  GameObject: {fileID: 0}
  hpMax: 2
  currentHp: 2
  damage: 2
  atackSpeed: 0.6
  moveSpeed: 0.6
  range: 4
  abilitieCost: 8
  jewelCost: 2
  cardLevel: 0
  price: 0
  hero: 0
  unlock: 0
  levelRequest: 0
  levelInGame: 0
  enemy: 1
